Arthur:
  Gene:
    2: 0.0329
    1: 0.1035
    0: 0.8636
  Trait:
    True: 0.0000
    False: 1.0000
Charlie:
  Gene:
    2: 0.0018
    1: 0.1331
    0: 0.8651
  Trait:
    True: 0.0000
    False: 1.0000
Fred:
  Gene:
    2: 0.0065
    1: 0.6486
    0: 0.3449
  Trait:
    True: 1.0000
    False: 0.0000
Ginny:
  Gene:
    2: 0.0027
    1: 0.1805
    0: 0.8168
  Trait:
    True: 0.1110
    False: 0.8890
Molly:
  Gene:
    2: 0.0329
    1: 0.1035
    0: 0.8636
  Trait:
    True: 0.0000
    False: 1.0000
Ron:
  Gene:
    2: 0.0027
    1: 0.1805
    0: 0.8168
  Trait:
    True: 0.1110
    False: 0.8890
